…
``` r
jhu_covid19_nc_counties <- dbGetQuery(con,
                                      "SELECT
                                        admin2, province_state, confirmed
                                      FROM
                                        `bigquery-public-data.covid19_jhu_csse.summary`
                                      WHERE
                                        country_region = 'US' 
                                        AND date = '2020-06-30'
                                        AND province_state = 'North Carolina';")

jhu_covid19_nc_counties
```

    ## # A tibble: 101 × 3
    ##    admin2    province_state confirmed
    ##    <chr>     <chr>              <int>
    ##  1 Alamance  North Carolina      1146
    ##  2 Alexander North Carolina        91
    ##  3 Alleghany North Carolina        31
    ##  4 Anson     North Carolina       128
    ##  5 Ashe      North Carolina        54
    ##  6 Avery     North Carolina        12
    ##  7 Beaufort  North Carolina        83
    ##  8 Bertie    North Carolina       145
    ##  9 Bladen    North Carolina       371
    ## 10 Brunswick North Carolina       510
    ## # ℹ 91 more rows
…
``` r
# finally stores my_search into local RAM 

my_search %>% 
  collect()
```

    ## # A tibble: 101 × 12
    ##    province_state country_region date       latitude longitude confirmed deaths
    ##    <chr>          <chr>          <date>        <dbl>     <dbl>     <int>  <int>
    ##  1 North Carolina US             2020-06-30     36.0     -79.4      1146     37
    ##  2 North Carolina US             2020-06-30     35.9     -81.2        91      1
    ##  3 North Carolina US             2020-06-30     36.5     -81.1        31      0
    ##  4 North Carolina US             2020-06-30     35.0     -80.1       128      2
    ##  5 North Carolina US             2020-06-30     36.4     -81.5        54      1
    ##  6 North Carolina US             2020-06-30     36.1     -81.9        12      0
    ##  7 North Carolina US             2020-06-30     35.5     -76.8        83      0
    ##  8 North Carolina US             2020-06-30     36.1     -77.0       145      4
    ##  9 North Carolina US             2020-06-30     34.6     -78.6       371      3
    ## 10 North Carolina US             2020-06-30     34.1     -78.2       510      5
    ## # ℹ 91 more rows
    ## # ℹ 5 more variables: recovered <chr>, active <int>, fips <chr>, admin2 <chr>,
    ## #   combined_key <chr>
…
my_local_tbl <- jhu_covid19_durham_sinceApril %>% 
  collect()

my_local_tbl
```

    ## # A tibble: 1,073 × 8
    ##    date       confirmed deaths recovered active fips  admin2 combined_key       
    ##    <date>         <int>  <int> <chr>      <int> <chr> <chr>  <chr>              
    ##  1 2020-05-15       968     37 0            931 37063 Durham Durham, North Caro…
    ##  2 2022-05-26     77503    337 <NA>          NA 37063 Durham Durham, North Caro…
    ##  3 2023-02-13    102135    395 <NA>          NA 37063 Durham Durham, North Caro…
    ##  4 2022-02-16     67823    295 <NA>          NA 37063 Durham Durham, North Caro…
    ##  5 2021-05-26     25490    224 <NA>          NA 37063 Durham Durham, North Caro…
    ##  6 2020-04-13       290      1 0            289 37063 Durham Durham, North Caro…
    ##  7 2021-10-06     33405    253 <NA>          NA 37063 Durham Durham, North Caro…
    ##  8 2021-08-25     28893    242 <NA>          NA 37063 Durham Durham, North Caro…
    ##  9 2022-07-14     85557    345 <NA>          NA 37063 Durham Durham, North Caro…
    ## 10 2022-10-03     94466    365 <NA>          NA 37063 Durham Durham, North Caro…
    ## # ℹ 1,063 more rows
…
``` r
# arranged at the local level
my_local_tbl %>% 
  arrange(date)
```

    ## # A tibble: 1,073 × 8
    ##    date       confirmed deaths recovered active fips  admin2 combined_key       
    ##    <date>         <int>  <int> <chr>      <int> <chr> <chr>  <chr>              
    ##  1 2020-04-01       126      0 0              0 37063 Durham Durham, North Caro…
    ##  2 2020-04-02       147      0 0              0 37063 Durham Durham, North Caro…
    ##  3 2020-04-03       159      0 0              0 37063 Durham Durham, North Caro…
    ##  4 2020-04-04       182      1 0              0 37063 Durham Durham, North Caro…
    ##  5 2020-04-05       186      1 0              0 37063 Durham Durham, North Caro…
    ##  6 2020-04-06       191      1 0              0 37063 Durham Durham, North Caro…
    ##  7 2020-04-07       219      1 0              0 37063 Durham Durham, North Caro…
    ##  8 2020-04-08       236      1 0              0 37063 Durham Durham, North Caro…
    ##  9 2020-04-09       243      1 0              0 37063 Durham Durham, North Caro…
    ## 10 2020-04-10       259      1 0              0 37063 Durham Durham, North Caro…
    ## # ℹ 1,063 more rows
…
``` r
bikeshare_trips <- tbl(con2_bq_bikes, "bikeshare_trips") 
```

``` r
austin_bikeshare_all <- bikeshare_trips %>% 
  mutate(trip_id = as.double(trip_id)) %>% 
  collect()
```

``` r
austin_bikeshare_all
```

    ## # A tibble: 1,975,266 × 10
    ##     trip_id subscriber_type      bike_id bike_type start_time         
    ##       <dbl> <chr>                <chr>   <chr>     <dttm>             
    ##  1 22813735 24 Hour Walk Up Pass 209     classic   2020-09-13 18:26:08
    ##  2 17187153 Local365             2095    classic   2018-04-25 15:25:04
    ##  3 26978346 Student Membership   2034    classic   2022-06-21 16:27:28
    ##  4 26882016 Local31              21543   electric  2022-06-10 17:02:10
    ##  5 26963117 Local31              19177   electric  2022-06-19 19:34:58
    ##  6 26962857 Local31              19177   electric  2022-06-19 19:08:46
    ##  7 26930959 Local31              18181   electric  2022-06-16 15:43:06
    ##  8 26920468 Local31              19955   electric  2022-06-15 14:06:39
    ##  9 26966012 Student Membership   21800   electric  2022-06-20 09:28:47
    ## 10 26871697 Local31              19479   electric  2022-06-09 13:27:30
    ## # ℹ 1,975,256 more rows
    ## # ℹ 5 more variables: start_station_id <int>, start_station_name <chr>,
    ## #   end_station_id <chr>, end_station_name <chr>, duration_minutes <int>
…
    ## # Source:   SQL [1 x 1]
    ## # Database: BigQueryConnection
    ##       n
    ##   <int>
    ## 1 20877

``` r
locations_tbl <- nytrees %>% 
  filter(curb_loc == "OffsetFromCurb") %>% 
  filter(health == "Good") %>% 
  db_compute_raster(longitude, latitude, resolution = 30)
locations_tbl
```

    ## # A tibble: 364 × 3
    ##    longitude latitude `n()`
    ##        <dbl>    <dbl> <dbl>
    ##  1     -73.8     40.8    16
    ##  2     -73.8     40.7   281
    ##  3     -73.9     40.7    60
    ##  4     -73.8     40.7    49
    ##  5     -73.8     40.7    34
    ##  6     -73.8     40.7    46
    ##  7     -73.7     40.7    27
    ##  8     -73.8     40.6     5
    ##  9     -74.1     40.6   129
    ## 10     -74.0     40.6    60
    ## # ℹ 354 more rows
…
