2023 August 15 - Spam Email - A Hugo website
…
## # A tibble: 2 × 2
##   yesno `n()`
##   <chr> <int>
## 1 n      2788
## 2 y      1813

Let’s try to gather the variables

spam2 <- spam %>%
  gather(key = "variable", value = "value", -yesno)
spam2

## # A tibble: 27,606 × 3
##    yesno variable value
##    <chr> <chr>    <dbl>
##  1 y     crl.tot    278
##  2 y     crl.tot   1028
##  3 y     crl.tot   2259
##  4 y     crl.tot    191
##  5 y     crl.tot    191
##  6 y     crl.tot     54
##  7 y     crl.tot    112
##  8 y     crl.tot     49
##  9 y     crl.tot   1257
## 10 y     crl.tot    749
## # ℹ 27,596 more rows
…
Let’s replace “y” and “n” with 1 and 0 to see if we can set up a model using Log Regression

Let’s use str_replace to convert the “y” and “n” text to “0” and “1”. Since the converted yesno variable is still a string, let’s use as.numeric to convert the column to a numeric.

spam$yesno <- str_replace(string = spam$yesno, pattern = "n", replacement = "0")
spam$yesno <- str_replace(string = spam$yesno, pattern = "y", replacement = "1")
spam$yesno <- spam$yesno %>% as.numeric()

Let’s keep crl.tot separate from the other variables since the values don’t appear to be recorded as percentages.

spam3 <- spam %>%
  gather(key = "variable", value = "value", -yesno, -crl.tot)
spam3

## # A tibble: 23,005 × 4
##    crl.tot yesno variable value
##      <dbl> <dbl> <chr>    <dbl>
##  1     278     1 dollar   0    
##  2    1028     1 dollar   0.18 
##  3    2259     1 dollar   0.184
##  4     191     1 dollar   0    
##  5     191     1 dollar   0    
##  6      54     1 dollar   0    
##  7     112     1 dollar   0.054
##  8      49     1 dollar   0    
##  9    1257     1 dollar   0.203
## 10     749     1 dollar   0.081
## # ℹ 22,995 more rows
…
