…
## Warning: Returning more (or less) than 1 row per `summarise()` group was deprecated in
## dplyr 1.1.0.
## ℹ Please use `reframe()` instead.
## ℹ When switching from `summarise()` to `reframe()`, remember that `reframe()`
##   always returns an ungrouped data frame and adjust accordingly.
## Call `lifecycle::last_lifecycle_warnings()` to see where this warning was
## generated.

## `summarise()` has grouped output by 'coo_name', 'coo_iso', 'coa_name',
## 'coa_iso'. You can override using the `.groups` argument.

## # A tibble: 64,809 × 6
## # Groups:   coo_name, coo_iso, coa_name, coa_iso [7,710]
##    coo_name    coo_iso coa_name    coa_iso  year refugees
##    <chr>       <chr>   <chr>       <chr>   <dbl>    <dbl>
##  1 Afghanistan AFG     Afghanistan AFG      2010        0
##  2 Afghanistan AFG     Afghanistan AFG      2011        0
##  3 Afghanistan AFG     Afghanistan AFG      2012        0
##  4 Afghanistan AFG     Afghanistan AFG      2013        0
##  5 Afghanistan AFG     Afghanistan AFG      2014        0
##  6 Afghanistan AFG     Afghanistan AFG      2015        0
##  7 Afghanistan AFG     Afghanistan AFG      2016        0
##  8 Afghanistan AFG     Afghanistan AFG      2017        0
##  9 Afghanistan AFG     Afghanistan AFG      2018        0
## 10 Afghanistan AFG     Afghanistan AFG      2019        0
## # ℹ 64,799 more rows

Let’s try making this data a little easier to work with by summing the refugees in each year first.

df2 <- df %>%
  group_by(year, coo_name, coo_iso) %>%
  summarise(coo_refugees = sum(refugees))

## `summarise()` has grouped output by 'year', 'coo_name'. You can override using
## the `.groups` argument.

# let's do a quick sanity check 
df2 %>%
  arrange(desc(coo_refugees))

## # A tibble: 2,559 × 4
## # Groups:   year, coo_name [2,559]
##     year coo_name         coo_iso coo_refugees
##    <dbl> <chr>            <chr>          <dbl>
##  1  2021 Syrian Arab Rep. SYR          6848865
##  2  2020 Syrian Arab Rep. SYR          6702910
##  3  2018 Syrian Arab Rep. SYR          6654374
##  4  2019 Syrian Arab Rep. SYR          6615249
##  5  2022 Syrian Arab Rep. SYR          6547818
##  6  2017 Syrian Arab Rep. SYR          6310498
##  7  2022 Ukraine          UKR          5679880
##  8  2022 Afghanistan      AFG          5661675
##  9  2016 Syrian Arab Rep. SYR          5524511
## 10  2015 Syrian Arab Rep. SYR          4873236
## # ℹ 2,549 more rows
…
