…
```r
tornadoes %>%
  group_by(st) %>%
  summarise(mean(mag),
            n()) %>%
  #clean up variable names 
  transmute(`State` = st, 
         `Avg Magnitude` = `mean(mag)`,
            `No. of Tornadoes` = `n()`) %>%
  arrange(desc(`No. of Tornadoes`))
```

```
## # A tibble: 52 × 3
##    State `Avg Magnitude` `No. of Tornadoes`
##    <chr>           <dbl>              <int>
##  1 TX              1.04                4601
##  2 FL              0.654               2585
##  3 OK              1.27                2499
##  4 MS              1.12                2209
##  5 IA              1.14                1898
##  6 LA              1.08                1762
##  7 KS              1.19                1728
##  8 MO              1.12                1711
##  9 AL              1.16                1687
## 10 GA              1.02                1618
## # ℹ 42 more rows
```
…
```r
tornadoes %>%
  group_by(st) %>%
  summarise(mean(mag),
            n()) %>%
  #clean up variable names 
  transmute(`State` = st, 
         `Avg Magnitude` = `mean(mag)`,
            `No. of Tornadoes` = `n()`) %>%
  arrange(-`Avg Magnitude`)
```

```
## # A tibble: 52 × 3
##    State `Avg Magnitude` `No. of Tornadoes`
##    <chr>           <dbl>              <int>
##  1 AR               1.34               1310
##  2 OK               1.27               2499
##  3 SD               1.23                658
##  4 IN               1.22               1189
##  5 IL               1.21               1407
##  6 WI               1.21               1048
##  7 KS               1.19               1728
##  8 NH               1.19                 74
##  9 KY               1.17                904
## 10 AL               1.16               1687
## # ℹ 42 more rows
```
…
