…
Next let’s see if we can determine which countries have the most long-lived individuals.

# Create a new data frame to explore which countries have the highest number of individuals

df1 <- cent %>%
  group_by(place_of_death_or_residence) %>%
  summarise(`No. of Individuals` = n(), 
            `Avg Age` = mean(age),
            `Shortest` = min(age),  
            `Longest` = max(age)) 

df1 %>% 
  arrange(desc(`No. of Individuals`))

## # A tibble: 34 × 5
##    place_of_death_or_residence `No. of Individuals` `Avg Age` Shortest Longest
##    <chr>                                      <int>     <dbl>    <dbl>   <dbl>
##  1 United States                                 66      114.     111.    119.
##  2 Japan                                         46      114.     111.    119.
##  3 France                                         9      115.     112.    122.
##  4 Italy                                          9      114.     112.    117.
##  5 Spain                                          9      114.     112.    116.
##  6 United Kingdom                                 9      114.     112.    116.
##  7 Brazil                                         6      115.     113.    117.
##  8 Canada                                         5      115.     111.    118.
##  9 Portugal                                       5      113.     111.    115.
## 10 Mexico                                         4      113.     111.    113.
## # ℹ 24 more rows
…
